<?xml version="1.0" encoding="UTF-8"?>
<session version="1.0">
<refactoring comment="Rename type &apos;rent_a_car.Launcher&apos; to &apos;Handler&apos;&#x0A;- Original project: &apos;ResolucionGuiaPreparacion&apos;&#x0A;- Original element: &apos;rent_a_car.Launcher&apos;&#x0A;- Renamed element: &apos;rent_a_car.Handler&apos;&#x0A;- Update references to refactored element&#x0A;- Update textual occurrences in comments and strings" description="Rename type &apos;Launcher&apos;" flags="589830" id="org.eclipse.jdt.ui.rename.type" input="/src&lt;rent_a_car{Launcher.java[Launcher" matchStrategy="1" name="Handler" qualified="false" references="true" similarDeclarations="false" stamp="1453984525191" textual="false" version="1.0"/>
</session>